…
collapse_data
```

```
## # A tibble: 67 x 4
##    tsyear total_taxa collapsed_taxa collapsed_percent
##     <dbl>      <int>          <int>             <dbl>
##  1   1950         96              0             0    
##  2   1951         98              1             1.02 
##  3   1952        104              0             0    
##  4   1953        105              2             1.90 
##  5   1954        107              2             1.87 
##  6   1955        109              1             0.917
##  7   1956        111              1             0.901
##  8   1957        111              2             1.80 
##  9   1958        112              1             0.893
## 10   1959        113              2             1.77 
## # … with 57 more rows
```
…
